pylib.pyhea.plot package
========================

.. automodule:: pylib.pyhea.plot
   :members:
   :undoc-members:
   :show-inheritance:

pylib.pyhea.plot.annotate module
--------------------------------

.. automodule:: pylib.pyhea.plot.annotate
   :members:
   :undoc-members:
   :show-inheritance:

pylib.pyhea.plot.label module
-----------------------------

.. automodule:: pylib.pyhea.plot.label
   :members:
   :undoc-members:
   :show-inheritance:

pylib.pyhea.plot.params module
------------------------------

.. automodule:: pylib.pyhea.plot.params
   :members:
   :undoc-members:
   :show-inheritance:

pylib.pyhea.plot.plot\_hist module
----------------------------------

.. automodule:: pylib.pyhea.plot.plot_hist
   :members:
   :undoc-members:
   :show-inheritance:

pylib.pyhea.plot.plot\_line module
----------------------------------

.. automodule:: pylib.pyhea.plot.plot_line
   :members:
   :undoc-members:
   :show-inheritance:

pylib.pyhea.plot.plotter module
-------------------------------

.. automodule:: pylib.pyhea.plot.plotter
   :members:
   :undoc-members:
   :show-inheritance:

pylib.pyhea.plot.tools module
-----------------------------

.. automodule:: pylib.pyhea.plot.tools
   :members:
   :undoc-members:
   :show-inheritance:

